{
  "relationships": [
    {
      "relationshipId": 1,
      "relationshipName": "parentTutorial",
      "otherEntityName": "tutorial",
      "relationshipType": "one-to-one",
      "ownerSide": false,
      "otherEntityRelationshipName": "externalVideo"
    }
  ],
  "fields": [
    {
      "fieldId": 1,
      "fieldName": "title",
      "fieldType": "String",
      "fieldValidateRules": [
        "required"
      ]
    },
    {
      "fieldId": 2,
      "fieldName": "url",
      "fieldType": "String",
      "fieldValidateRules": [
        "required"
      ]
    },
    {
      "fieldId": 3,
      "fieldName": "isYoutube",
      "fieldType": "Boolean",
      "fieldValidateRules": [
        "required"
      ]
    },
    {
      "fieldId": 4,
      "fieldName": "createdAt",
      "fieldType": "LocalDate"
    },
    {
      "fieldId": 5,
      "fieldName": "updatedAt",
      "fieldType": "LocalDate"
    }
  ],
  "changelogDate": "20160115025452",
  "dto": "no",
  "pagination": "no"
}