{
  "relationships": [
    {
      "relationshipId": 1,
      "relationshipName": "tutorialAssociated",
      "otherEntityName": "tutorial",
      "relationshipType": "many-to-many",
      "ownerSide": false,
      "otherEntityRelationshipName": "tag"
    }
  ],
  "fields": [
    {
      "fieldId": 1,
      "fieldName": "name",
      "fieldType": "String",
      "fieldValidateRules": [
        "required"
      ]
    },
    {
      "fieldId": 2,
      "fieldName": "weight",
      "fieldType": "Float"
    },
    {
      "fieldId": 3,
      "fieldName": "description",
      "fieldType": "String",
      "fieldValidateRules": [
        "required"
      ]
    },
    {
      "fieldId": 4,
      "fieldName": "createdAt",
      "fieldType": "LocalDate"
    },
    {
      "fieldId": 5,
      "fieldName": "updatedAt",
      "fieldType": "LocalDate"
    },
    {
      "fieldId": 6,
      "fieldName": "origin",
      "fieldType": "Origin",
      "fieldValues": "SYSTEM,HUMAN"
    }
  ],
  "changelogDate": "20160115025452",
  "dto": "no",
  "pagination": "no"
}