{
  "relationships": [],
  "fields": [
    {
      "fieldId": 1,
      "fieldName": "type",
      "fieldType": "Boolean",
      "fieldValidateRules": [
        "required"
      ]
    }
  ],
  "changelogDate": "20160115025452",
  "dto": "no",
  "pagination": "no"
}